logical/sim/axi4_lite_interconnect/axi4_lite_interconnect_m1s2.vcd
$date
	Fri Jul  4 19:26:18 2025
$end
$version
	Icarus Verilog
$end
$timescale
	1ns
$end
$scope module tb_axi4_lite_interconnect_m1s2 $end
$var wire 1 ! slave0_read_addr_done $end
$var wire 32 " slave0_read_data [31:0] $end
$var wire 2 # slave0_read_resp [1:0] $end
$var wire 1 $ slave0_write_addr_done $end
$var wire 1 % slave0_write_data_done $end
$var wire 2 & slave0_write_resp [1:0] $end
$var wire 1 ' slave1_read_addr_done $end
$var wire 32 ( slave1_read_data [31:0] $end
$var wire 2 ) slave1_read_resp [1:0] $end
$var wire 1 * slave1_write_addr_done $end
$var wire 1 + slave1_write_data_done $end
$var wire 2 , slave1_write_resp [1:0] $end
$var wire 1 - slave1_write_strb $end
$var wire 32 . slave1_write_data [31:0] $end
$var wire 32 / slave1_write_addr [31:0] $end
$var wire 32 0 slave1_read_addr [31:0] $end
$var wire 1 1 slave0_write_strb $end
$var wire 32 2 slave0_write_data [31:0] $end
$var wire 32 3 slave0_write_addr [31:0] $end
$var wire 32 4 slave0_read_addr [31:0] $end
$var wire 1 5 s1_WVALID $end
$var wire 4 6 s1_WSTRB [3:0] $end
$var wire 1 7 s1_WREADY $end
$var wire 32 8 s1_WDATA [31:0] $end
$var wire 1 9 s1_RVALID $end
$var wire 2 : s1_RRESP [1:0] $end
$var wire 1 ; s1_RREADY $end
$var wire 32 < s1_RDATA [31:0] $end
$var wire 1 = s1_BVALID $end
$var wire 2 > s1_BRESP [1:0] $end
$var wire 1 ? s1_BREADY $end
$var wire 1 @ s1_AWVALID $end
$var wire 1 A s1_AWREADY $end
$var wire 32 B s1_AWADDR [31:0] $end
$var wire 1 C s1_ARVALID $end
$var wire 1 D s1_ARREADY $end
$var wire 32 E s1_ARADDR [31:0] $end
$var wire 1 F s0_WVALID $end
$var wire 4 G s0_WSTRB [3:0] $end
$var wire 1 H s0_WREADY $end
$var wire 32 I s0_WDATA [31:0] $end
$var wire 1 J s0_RVALID $end
$var wire 2 K s0_RRESP [1:0] $end
$var wire 1 L s0_RREADY $end
$var wire 32 M s0_RDATA [31:0] $end
$var wire 1 N s0_BVALID $end
$var wire 2 O s0_BRESP [1:0] $end
$var wire 1 P s0_BREADY $end
$var wire 1 Q s0_AWVALID $end
$var wire 1 R s0_AWREADY $end
$var wire 32 S s0_AWADDR [31:0] $end
$var wire 1 T s0_ARVALID $end
$var wire 1 U s0_ARREADY $end
$var wire 32 V s0_ARADDR [31:0] $end
$var wire 2 W m0_write_resp [1:0] $end
$var wire 2 X m0_read_resp [1:0] $end
$var wire 32 Y m0_read_data [31:0] $end
$var wire 1 Z m0_WVALID $end
$var wire 4 [ m0_WSTRB [3:0] $end
$var wire 1 \ m0_WREADY $end
$var wire 32 ] m0_WDATA [31:0] $end
$var wire 1 ^ m0_RVALID $end
$var wire 2 _ m0_RRESP [1:0] $end
$var wire 1 ` m0_RREADY $end
$var wire 32 a m0_RDATA [31:0] $end
$var wire 1 b m0_BVALID $end
$var wire 2 c m0_BRESP [1:0] $end
$var wire 1 d m0_BREADY $end
$var wire 1 e m0_AWVALID $end
$var wire 1 f m0_AWREADY $end
$var wire 32 g m0_AWADDR [31:0] $end
$var wire 1 h m0_ARVALID $end
$var wire 1 i m0_ARREADY $end
$var wire 32 j m0_ARADDR [31:0] $end
$var reg 1 k iCLK $end
$var reg 1 l iRST $end
$var reg 32 m m0_read_addr [31:0] $end
$var reg 1 n m0_read_req $end
$var reg 32 o m0_write_addr [31:0] $end
$var reg 32 p m0_write_data [31:0] $end
$var reg 1 q m0_write_req $end
$var reg 4 r m0_write_strb [3:0] $end
$var reg 32 s read0_addr [31:0] $end
$var reg 32 t read1_addr [31:0] $end
$var reg 32 u write0_addr [31:0] $end
$var reg 32 v write1_addr [31:0] $end
$var integer 32 w found [31:0] $end
$var integer 32 x i [31:0] $end
$var integer 32 y idx [31:0] $end
$var integer 32 z total_ops [31:0] $end
$var integer 32 { try_idx [31:0] $end
$var integer 32 | valid_idx [31:0] $end
$scope module u_interconnect $end
$var wire 1 k iCLK $end
$var wire 1 l iRST $end
$var wire 1 5 s1_WVALID $end
$var wire 4 } s1_WSTRB [3:0] $end
$var wire 1 7 s1_WREADY $end
$var wire 32 ~ s1_WDATA [31:0] $end
$var wire 1 9 s1_RVALID $end
$var wire 2 !" s1_RRESP [1:0] $end
$var wire 1 ; s1_RREADY $end
$var wire 32 "" s1_RDATA [31:0] $end
$var wire 1 = s1_BVALID $end
$var wire 2 #" s1_BRESP [1:0] $end
$var wire 1 ? s1_BREADY $end
$var wire 1 @ s1_AWVALID $end
$var wire 1 A s1_AWREADY $end
$var wire 32 $" s1_AWADDR [31:0] $end
$var wire 1 C s1_ARVALID $end
$var wire 1 D s1_ARREADY $end
$var wire 32 %" s1_ARADDR [31:0] $end
$var wire 1 F s0_WVALID $end
$var wire 4 &" s0_WSTRB [3:0] $end
$var wire 1 H s0_WREADY $end
$var wire 32 '" s0_WDATA [31:0] $end
$var wire 1 J s0_RVALID $end
$var wire 2 (" s0_RRESP [1:0] $end
$var wire 1 L s0_RREADY $end
$var wire 32 )" s0_RDATA [31:0] $end
$var wire 1 N s0_BVALID $end
$var wire 2 *" s0_BRESP [1:0] $end
$var wire 1 P s0_BREADY $end
$var wire 1 Q s0_AWVALID $end
$var wire 1 R s0_AWREADY $end
$var wire 32 +" s0_AWADDR [31:0] $end
$var wire 1 T s0_ARVALID $end
$var wire 1 U s0_ARREADY $end
$var wire 32 ," s0_ARADDR [31:0] $end
$var wire 1 Z m0_WVALID $end
$var wire 4 -" m0_WSTRB [3:0] $end
$var wire 1 \ m0_WREADY $end
$var wire 32 ." m0_WDATA [31:0] $end
$var wire 1 ^ m0_RVALID $end
$var wire 2 /" m0_RRESP [1:0] $end
$var wire 1 ` m0_RREADY $end
$var wire 32 0" m0_RDATA [31:0] $end
$var wire 1 b m0_BVALID $end
$var wire 2 1" m0_BRESP [1:0] $end
$var wire 1 d m0_BREADY $end
$var wire 1 e m0_AWVALID $end
$var wire 1 f m0_AWREADY $end
$var wire 32 2" m0_AWADDR [31:0] $end
$var wire 1 h m0_ARVALID $end
$var wire 1 i m0_ARREADY $end
$var wire 32 3" m0_ARADDR [31:0] $end
$var reg 3 4" next_state [2:0] $end
$var reg 1 5" read_start $end
$var reg 2 6" sel_m [1:0] $end
$var reg 2 7" sel_m_reg [1:0] $end
$var reg 2 8" sel_s [1:0] $end
$var reg 2 9" sel_s_reg [1:0] $end
$var reg 3 :" state [2:0] $end
$var reg 1 ;" write_start $end
$upscope $end
$scope module u_master0 $end
$var wire 1 k iCLK $end
$var wire 1 l iRST $end
$var wire 3 <" m_ARPROT [2:0] $end
$var wire 1 i m_ARREADY $end
$var wire 3 =" m_AWPROT [2:0] $end
$var wire 1 f m_AWREADY $end
$var wire 2 >" m_BRESP [1:0] $end
$var wire 1 b m_BVALID $end
$var wire 32 ?" m_RDATA [31:0] $end
$var wire 2 @" m_RRESP [1:0] $end
$var wire 1 ^ m_RVALID $end
$var wire 1 \ m_WREADY $end
$var wire 32 A" read_addr [31:0] $end
$var wire 1 n read_req $end
$var wire 32 B" write_addr [31:0] $end
$var wire 32 C" write_data [31:0] $end
$var wire 1 q write_req $end
$var wire 4 D" write_strb [3:0] $end
$var wire 2 E" write_resp [1:0] $end
$var wire 2 F" read_resp [1:0] $end
$var wire 32 G" read_data [31:0] $end
$var wire 1 Z m_WVALID $end
$var wire 4 H" m_WSTRB [3:0] $end
$var wire 32 I" m_WDATA [31:0] $end
$var wire 1 ` m_RREADY $end
$var wire 1 d m_BREADY $end
$var wire 1 e m_AWVALID $end
$var wire 32 J" m_AWADDR [31:0] $end
$var wire 1 h m_ARVALID $end
$var wire 32 K" m_ARADDR [31:0] $end
$var reg 3 L" next_state [2:0] $end
$var reg 1 M" read_start $end
$var reg 3 N" state [2:0] $end
$var reg 1 O" write_start $end
$upscope $end
$scope module u_slave0 $end
$var wire 1 k iCLK $end
$var wire 1 l iRST $end
$var wire 32 P" read_data [31:0] $end
$var wire 2 Q" read_resp [1:0] $end
$var wire 32 R" s_ARADDR [31:0] $end
$var wire 3 S" s_ARPROT [2:0] $end
$var wire 1 T s_ARVALID $end
$var wire 32 T" s_AWADDR [31:0] $end
$var wire 3 U" s_AWPROT [2:0] $end
$var wire 1 Q s_AWVALID $end
$var wire 1 P s_BREADY $end
$var wire 1 L s_RREADY $end
$var wire 32 V" s_WDATA [31:0] $end
$var wire 4 W" s_WSTRB [3:0] $end
$var wire 1 F s_WVALID $end
$var wire 2 X" write_resp [1:0] $end
$var wire 4 Y" write_strb [3:0] $end
$var wire 32 Z" write_data [31:0] $end
$var wire 32 [" write_addr [31:0] $end
$var wire 1 H s_WREADY $end
$var wire 1 J s_RVALID $end
$var wire 2 \" s_RRESP [1:0] $end
$var wire 32 ]" s_RDATA [31:0] $end
$var wire 1 N s_BVALID $end
$var wire 2 ^" s_BRESP [1:0] $end
$var wire 1 R s_AWREADY $end
$var wire 1 U s_ARREADY $end
$var wire 32 _" read_addr [31:0] $end
$var reg 3 `" next_state [2:0] $end
$var reg 3 a" state [2:0] $end
$upscope $end
$scope module u_slave1 $end
$var wire 1 k iCLK $end
$var wire 1 l iRST $end
$var wire 32 b" read_data [31:0] $end
$var wire 2 c" read_resp [1:0] $end
$var wire 32 d" s_ARADDR [31:0] $end
$var wire 3 e" s_ARPROT [2:0] $end
$var wire 1 C s_ARVALID $end
$var wire 32 f" s_AWADDR [31:0] $end
$var wire 3 g" s_AWPROT [2:0] $end
$var wire 1 @ s_AWVALID $end
$var wire 1 ? s_BREADY $end
$var wire 1 ; s_RREADY $end
$var wire 32 h" s_WDATA [31:0] $end
$var wire 4 i" s_WSTRB [3:0] $end
$var wire 1 5 s_WVALID $end
$var wire 2 j" write_resp [1:0] $end
$var wire 4 k" write_strb [3:0] $end
$var wire 32 l" write_data [31:0] $end
$var wire 32 m" write_addr [31:0] $end
$var wire 1 7 s_WREADY $end
$var wire 1 9 s_RVALID $end
$var wire 2 n" s_RRESP [1:0] $end
$var wire 32 o" s_RDATA [31:0] $end
$var wire 1 = s_BVALID $end
$var wire 2 p" s_BRESP [1:0] $end
$var wire 1 A s_AWREADY $end
$var wire 1 D s_ARREADY $end
$var wire 32 q" read_addr [31:0] $end
$var reg 3 r" next_state [2:0] $end
$var reg 3 s" state [2:0] $end
$upscope $end
$upscope $end
$enddefinitions $end
#0
$dumpvars
b0 s"
b0 r"
b0 q"
b0 p"
b0 o"
b0 n"
b0 m"
b0 l"
b0 k"
b0 j"
b0 i"
b0 h"
b0 g"
b0 f"
b0 e"
b0 d"
b0 c"
b0 b"
b0 a"
b0 `"
b0 _"
b0 ^"
b0 ]"
b0 \"
b0 ["
b0 Z"
b0 Y"
b0 X"
b0 W"
b0 V"
b0 U"
b0 T"
b0 S"
b0 R"
b0 Q"
b0 P"
0O"
b0 N"
0M"
b0 L"
b0 K"
b0 J"
b0 I"
b0 H"
b0 G"
b0 F"
b0 E"
b0 D"
b0 C"
b0 B"
b0 A"
b0 @"
b0 ?"
b0 >"
b0 ="
b0 <"
0;"
b0 :"
b10 9"
b10 8"
b1 7"
b1 6"
05"
b0 4"
b0 3"
b0 2"
b0 1"
b0 0"
b0 /"
b0 ."
b0 -"
b0 ,"
b0 +"
b0 *"
b0 )"
b0 ("
b0 '"
b0 &"
b0 %"
b0 $"
b0 #"
b0 ""
b0 !"
b0 ~
b0 }
bx |
bx {
b0 z
bx y
b11001 x
bx w
b0 v
b0 u
b0 t
b0 s
b0 r
0q
b0 p
b0 o
0n
b0 m
0l
1k
b0 j
0i
0h
b0 g
0f
0e
0d
b0 c
0b
b0 a
0`
b0 _
0^
b0 ]
0\
b0 [
0Z
b0 Y
b0 X
b0 W
b0 V
0U
0T
b0 S
0R
0Q
0P
b0 O
0N
b0 M
0L
b0 K
0J
b0 I
0H
b0 G
0F
b0 E
0D
0C
b0 B
0A
0@
0?
b0 >
0=
b0 <
0;
b0 :
09
b0 8
07
b0 6
05
b0 4
b0 3
b0 2
01
b0 0
b0 /
b0 .
0-
b0 ,
0+
0*
b0 )
b0 (
0'
b0 &
0%
0$
b0 #
b0 "
0!
$end
#5
0k
#10
b1 L"
1q
b1111 r
b1111 D"
b10101000011101100110100101010000 p
b10101000011101100110100101010000 C"
1k
b1001 y
1l
#15
0k
#20
b1 4"
b0 8"
1;"
b0 6"
1e
1O"
b1 N"
1k
#25
0k
#30
b1 `"
1Q
0;"
b0 7"
b0 9"
b1 :"
1k
#35
0k
#40
b10 L"
1f
1$
b10 `"
1R
b1 a"
1k
#45
0k
#50
11
1%
b11 `"
b10101000011101100110100101010000 2
b10101000011101100110100101010000 Z"
b1111 Y"
1F
b10101000011101100110100101010000 I
b10101000011101100110100101010000 '"
b10101000011101100110100101010000 V"
b1111 G
b1111 &"
b1111 W"
b11 L"
0f
0$
1\
0Q
0R
1H
0e
1Z
b10101000011101100110100101010000 ]
b10101000011101100110100101010000 ."
b10101000011101100110100101010000 I"
b1111 [
b1111 -"
b1111 H"
b10 a"
b10 N"
1k
#55
0k
#60
b10100011010000000000101101000110 p
b10100011010000000000101101000110 C"
b11101000 o
b11101000 B"
1q
b0 `"
1P
b0 L"
0F
b0 I
b0 '"
b0 V"
b0 G
b0 &"
b0 W"
b1101 y
b1 z
0\
0%
01
1b
b0 4"
0Z
b0 ]
b0 ."
b0 I"
b0 [
b0 -"
b0 H"
1d
0H
b0 2
b0 Z"
b0 Y"
1N
b11 N"
b11 a"
b10101000011101100110100101010000 "
b10101000011101100110100101010000 P"
1k
#65
0k
#70
0b
0P
b10 8"
b1 6"
0N
b1 L"
0d
b0 :"
b0 a"
b0 N"
1k
#75
0k
#80
b1 4"
b0 8"
1;"
b0 6"
1e
b11101000 g
b11101000 2"
b11101000 J"
b1 N"
b1 7"
b10 9"
1k
#85
0k
#90
b1 `"
b11101000 S
b11101000 +"
b11101000 T"
1Q
0;"
b0 7"
b0 9"
b1 :"
1k
#95
0k
#100
b10 L"
1f
1$
b10 `"
1R
b11101000 3
b11101000 ["
b1 a"
1k
#105
0k
#110
11
1%
b11 `"
b10100011010000000000101101000110 2
b10100011010000000000101101000110 Z"
b1111 Y"
1F
b10100011010000000000101101000110 I
b10100011010000000000101101000110 '"
b10100011010000000000101101000110 V"
b1111 G
b1111 &"
b1111 W"
b11 L"
0f
0$
1\
0Q
b0 S
b0 +"
b0 T"
0R
b0 3
b0 ["
1H
0e
b0 g
b0 2"
b0 J"
1Z
b10100011010000000000101101000110 ]
b10100011010000000000101101000110 ."
b10100011010000000000101101000110 I"
b1111 [
b1111 -"
b1111 H"
b10 a"
b10 N"
b11101000 u
1k
#115
0k
#120
b1010010011111110000101010100100 p
b1010010011111110000101010100100 C"
b1110000 o
b1110000 B"
1q
b0 `"
1P
b0 L"
0F
b0 I
b0 '"
b0 V"
b0 G
b0 &"
b0 W"
b10101 y
b10 z
0\
0%
01
1b
b0 4"
0Z
b0 ]
b0 ."
b0 I"
b0 [
b0 -"
b0 H"
1d
0H
b0 2
b0 Z"
b0 Y"
1N
b11 N"
b11 a"
1k
#125
0k
#130
0b
0P
b10 8"
b1 6"
0N
b1 L"
0d
b0 :"
b0 a"
b0 N"
1k
#135
0k
#140
b1 4"
b0 8"
1;"
b0 6"
1e
b1110000 g
b1110000 2"
b1110000 J"
b1 N"
b1 7"
b10 9"
1k
#145
0k
#150
b1 `"
b1110000 S
b1110000 +"
b1110000 T"
1Q
0;"
b0 7"
b0 9"
b1 :"
1k
#155
0k
#160
b10 L"
1f
1$
b10 `"
1R
b1110000 3
b1110000 ["
b1 a"
1k
#165
0k
#170
11
1%
b11 `"
b1010010011111110000101010100100 2
b1010010011111110000101010100100 Z"
b1111 Y"
1F
b1010010011111110000101010100100 I
b1010010011111110000101010100100 '"
b1010010011111110000101010100100 V"
b1111 G
b1111 &"
b1111 W"
b11 L"
0f
0$
1\
0Q
b0 S
b0 +"
b0 T"
0R
b0 3
b0 ["
1H
0e
b0 g
b0 2"
b0 J"
1Z
b1010010011111110000101010100100 ]
b1010010011111110000101010100100 ."
b1010010011111110000101010100100 I"
b1111 [
b1111 -"
b1111 H"
b10 a"
b10 N"
b1110000 u
1k
#175
0k
#180
b1001010010010000001001010010100 p
b1001010010010000001001010010100 C"
b101110100 o
b101110100 B"
1q
b0 `"
1P
b0 L"
0F
b0 I
b0 '"
b0 V"
b0 G
b0 &"
b0 W"
b1011 y
b11 z
0\
0%
01
1b
b0 4"
0Z
b0 ]
b0 ."
b0 I"
b0 [
b0 -"
b0 H"
1d
0H
b0 2
b0 Z"
b0 Y"
1N
b11 N"
b11 a"
1k
#185
0k
#190
0b
0P
b10 8"
b1 6"
0N
b1 L"
0d
b0 :"
b0 a"
b0 N"
1k
#195
0k
#200
b1 4"
b1 8"
1;"
b0 6"
1e
b101110100 g
b101110100 2"
b101110100 J"
b1 N"
b1 7"
b10 9"
1k
#205
0k
#210
b1 r"
b1110100 B
b1110100 $"
b1110100 f"
1@
0;"
b0 7"
b1 9"
b1 :"
1k
#215
0k
#220
b10 L"
1f
1*
b10 r"
1A
b1110100 /
b1110100 m"
b1 s"
1k
#225
0k
#230
1-
1+
b11 r"
b1001010010010000001001010010100 .
b1001010010010000001001010010100 l"
b1111 k"
b11 L"
15
b1001010010010000001001010010100 8
b1001010010010000001001010010100 ~
b1001010010010000001001010010100 h"
b1111 6
b1111 }
b1111 i"
0f
1\
0*
0@
b0 B
b0 $"
b0 f"
0A
b0 /
b0 m"
17
0e
b0 g
b0 2"
b0 J"
1Z
b1001010010010000001001010010100 ]
b1001010010010000001001010010100 ."
b1001010010010000001001010010100 I"
b1111 [
b1111 -"
b1111 H"
b10 s"
b10 N"
b1110100 v
1k
#235
0k
#240
b11100010000001010110101111000100 p
b11100010000001010110101111000100 C"
b101100000 o
b101100000 B"
1q
b0 r"
1?
b0 L"
0\
1b
05
b0 8
b0 ~
b0 h"
b0 6
b0 }
b0 i"
b10111 y
b100 z
0+
0-
b0 4"
0Z
b0 ]
b0 ."
b0 I"
b0 [
b0 -"
b0 H"
1d
07
b0 .
b0 l"
b0 k"
1=
b11 N"
b11 s"
1k
#245
0k
#250
0b
0?
b10 8"
b1 6"
0=
b1 L"
0d
b0 :"
b0 s"
b0 N"
1k
#255
0k
#260
b1 4"
b1 8"
1;"
b0 6"
1e
b101100000 g
b101100000 2"
b101100000 J"
b1 N"
b1 7"
b10 9"
1k
#265
0k
#270
b1 r"
b1100000 B
b1100000 $"
b1100000 f"
1@
0;"
b0 7"
b1 9"
b1 :"
1k
#275
0k
#280
b10 L"
1f
1*
b10 r"
1A
b1100000 /
b1100000 m"
b1 s"
1k
#285
0k
#290
1-
1+
b11 r"
b11100010000001010110101111000100 .
b11100010000001010110101111000100 l"
b1111 k"
b11 L"
15
b11100010000001010110101111000100 8
b11100010000001010110101111000100 ~
b11100010000001010110101111000100 h"
b1111 6
b1111 }
b1111 i"
0f
1\
0*
0@
b0 B
b0 $"
b0 f"
0A
b0 /
b0 m"
17
0e
b0 g
b0 2"
b0 J"
1Z
b11100010000001010110101111000100 ]
b11100010000001010110101111000100 ."
b11100010000001010110101111000100 I"
b1111 [
b1111 -"
b1111 H"
b10 s"
b10 N"
b1100000 v
1k
#295
0k
#300
b1001101000111010101000010011010 p
b1001101000111010101000010011010 C"
b11000 o
b11000 B"
1q
b0 r"
1?
b0 L"
0\
1b
05
b0 8
b0 ~
b0 h"
b0 6
b0 }
b0 i"
b11000 y
b101 z
0+
0-
b0 4"
0Z
b0 ]
b0 ."
b0 I"
b0 [
b0 -"
b0 H"
1d
07
b0 .
b0 l"
b0 k"
1=
b11 N"
b11 s"
1k
#305
0k
#310
0b
0?
b10 8"
b1 6"
0=
b1 L"
0d
b0 :"
b0 s"
b0 N"
1k
#315
0k
#320
b1 4"
b0 8"
1;"
b0 6"
1e
b11000 g
b11000 2"
b11000 J"
b1 N"
b1 7"
b10 9"
1k
#325
0k
#330
b1 `"
b11000 S
b11000 +"
b11000 T"
1Q
0;"
b0 7"
b0 9"
b1 :"
1k
#335
0k
#340
b10 L"
1f
1$
b10 `"
1R
b11000 3
b11000 ["
b1 a"
1k
#345
0k
#350
11
1%
b11 `"
b1001101000111010101000010011010 2
b1001101000111010101000010011010 Z"
b1111 Y"
1F
b1001101000111010101000010011010 I
b1001101000111010101000010011010 '"
b1001101000111010101000010011010 V"
b1111 G
b1111 &"
b1111 W"
b11 L"
0f
0$
1\
0Q
b0 S
b0 +"
b0 T"
0R
b0 3
b0 ["
1H
0e
b0 g
b0 2"
b0 J"
1Z
b1001101000111010101000010011010 ]
b1001101000111010101000010011010 ."
b1001101000111010101000010011010 I"
b1111 [
b1111 -"
b1111 H"
b10 a"
b10 N"
b11000 u
1k
#355
0k
#360
b10101101000110011010010101011010 p
b10101101000110011010010101011010 C"
b1000000 o
b1000000 B"
1q
b0 `"
1P
b0 L"
0F
b0 I
b0 '"
b0 V"
b0 G
b0 &"
b0 W"
b10001 y
b110 z
0\
0%
01
1b
b0 4"
0Z
b0 ]
b0 ."
b0 I"
b0 [
b0 -"
b0 H"
1d
0H
b0 2
b0 Z"
b0 Y"
1N
b11 N"
b11 a"
1k
#365
0k
#370
0b
0P
b10 8"
b1 6"
0N
b1 L"
0d
b0 :"
b0 a"
b0 N"
1k
#375
0k
#380
b1 4"
b0 8"
1;"
b0 6"
1e
b1000000 g
b1000000 2"
b1000000 J"
b1 N"
b1 7"
b10 9"
1k
#385
0k
#390
b1 `"
b1000000 S
b1000000 +"
b1000000 T"
1Q
0;"
b0 7"
b0 9"
b1 :"
1k
#395
0k
#400
b10 L"
1f
1$
b10 `"
1R
b1000000 3
b1000000 ["
b1 a"
1k
#405
0k
#410
11
1%
b11 `"
b10101101000110011010010101011010 2
b10101101000110011010010101011010 Z"
b1111 Y"
1F
b10101101000110011010010101011010 I
b10101101000110011010010101011010 '"
b10101101000110011010010101011010 V"
b1111 G
b1111 &"
b1111 W"
b11 L"
0f
0$
1\
0Q
b0 S
b0 +"
b0 T"
0R
b0 3
b0 ["
1H
0e
b0 g
b0 2"
b0 J"
1Z
b10101101000110011010010101011010 ]
b10101101000110011010010101011010 ."
b10101101000110011010010101011010 I"
b1111 [
b1111 -"
b1111 H"
b10 a"
b10 N"
b1000000 u
1k
#415
0k
#420
b11011110001001010101000110111100 p
b11011110001001010101000110111100 C"
b110100100 o
b110100100 B"
1q
b0 `"
1P
b0 L"
0F
b0 I
b0 '"
b0 V"
b0 G
b0 &"
b0 W"
b1000 y
b111 z
0\
0%
01
1b
b0 4"
0Z
b0 ]
b0 ."
b0 I"
b0 [
b0 -"
b0 H"
1d
0H
b0 2
b0 Z"
b0 Y"
1N
b11 N"
b11 a"
1k
#425
0k
#430
0b
0P
b10 8"
b1 6"
0N
b1 L"
0d
b0 :"
b0 a"
b0 N"
1k
#435
0k
#440
b1 4"
b1 8"
1;"
b0 6"
1e
b110100100 g
b110100100 2"
b110100100 J"
b1 N"
b1 7"
b10 9"
1k
#445
0k
#450
b1 r"
b10100100 B
b10100100 $"
b10100100 f"
1@
0;"
b0 7"
b1 9"
b1 :"
1k
#455
0k
#460
b10 L"
1f
1*
b10 r"
1A
b10100100 /
b10100100 m"
b1 s"
1k
#465
0k
#470
1-
1+
b11 r"
b11011110001001010101000110111100 .
b11011110001001010101000110111100 l"
b1111 k"
b11 L"
15
b11011110001001010101000110111100 8
b11011110001001010101000110111100 ~
b11011110001001010101000110111100 h"
b1111 6
b1111 }
b1111 i"
0f
1\
0*
0@
b0 B
b0 $"
b0 f"
0A
b0 /
b0 m"
17
0e
b0 g
b0 2"
b0 J"
1Z
b11011110001001010101000110111100 ]
b11011110001001010101000110111100 ."
b11011110001001010101000110111100 I"
b1111 [
b1111 -"
b1111 H"
b10 s"
b10 N"
b10100100 v
1k
#475
0k
#480
b11100111111000111101000111001 p
b11100111111000111101000111001 C"
b100110000 o
b100110000 B"
1q
b0 r"
1?
b0 L"
0\
1b
05
b0 8
b0 ~
b0 h"
b0 6
b0 }
b0 i"
b1 y
b1000 z
0+
0-
b0 4"
0Z
b0 ]
b0 ."
b0 I"
b0 [
b0 -"
b0 H"
1d
07
b0 .
b0 l"
b0 k"
1=
b11 N"
b11 s"
1k
#485
0k
#490
0b
0?
b10 8"
b1 6"
0=
b1 L"
0d
b0 :"
b0 s"
b0 N"
1k
#495
0k
#500
b1 4"
b1 8"
1;"
b0 6"
1e
b100110000 g
b100110000 2"
b100110000 J"
b1 N"
b1 7"
b10 9"
1k
#505
0k
#510
b1 r"
b110000 B
b110000 $"
b110000 f"
1@
0;"
b0 7"
b1 9"
b1 :"
1k
#515
0k
#520
b10 L"
1f
1*
b10 r"
1A
b110000 /
b110000 m"
b1 s"
1k
#525
0k
#530
1-
1+
b11 r"
b11100111111000111101000111001 .
b11100111111000111101000111001 l"
b1111 k"
b11 L"
15
b11100111111000111101000111001 8
b11100111111000111101000111001 ~
b11100111111000111101000111001 h"
b1111 6
b1111 }
b1111 i"
0f
1\
0*
0@
b0 B
b0 $"
b0 f"
0A
b0 /
b0 m"
17
0e
b0 g
b0 2"
b0 J"
1Z
b11100111111000111101000111001 ]
b11100111111000111101000111001 ."
b11100111111000111101000111001 I"
b1111 [
b1111 -"
b1111 H"
b10 s"
b10 N"
b110000 v
1k
#535
0k
#540
b11000101111100110010001110001011 p
b11000101111100110010001110001011 C"
b100110100 o
b100110100 B"
1q
b0 r"
1?
b0 L"
0\
1b
05
b0 8
b0 ~
b0 h"
b0 6
b0 }
b0 i"
b10100 y
b1001 z
0+
0-
b0 4"
0Z
b0 ]
b0 ."
b0 I"
b0 [
b0 -"
b0 H"
1d
07
b0 .
b0 l"
b0 k"
1=
b11 N"
b11 s"
1k
#545
0k
#550
0b
0?
b10 8"
b1 6"
0=
b1 L"
0d
b0 :"
b0 s"
b0 N"
1k
#555
0k
#560
b1 4"
b1 8"
1;"
b0 6"
1e
b100110100 g
b100110100 2"
b100110100 J"
b1 N"
b1 7"
b10 9"
1k
#565
0k
#570
b1 r"
b110100 B
b110100 $"
b110100 f"
1@
0;"
b0 7"
b1 9"
b1 :"
1k
#575
0k
#580
b10 L"
1f
1*
b10 r"
1A
b110100 /
b110100 m"
b1 s"
1k
#585
0k
#590
1-
1+
b11 r"
b11000101111100110010001110001011 .
b11000101111100110010001110001011 l"
b1111 k"
b11 L"
15
b11000101111100110010001110001011 8
b11000101111100110010001110001011 ~
b11000101111100110010001110001011 h"
b1111 6
b1111 }
b1111 i"
0f
1\
0*
0@
b0 B
b0 $"
b0 f"
0A
b0 /
b0 m"
17
0e
b0 g
b0 2"
b0 J"
1Z
b11000101111100110010001110001011 ]
b11000101111100110010001110001011 ."
b11000101111100110010001110001011 I"
b1111 [
b1111 -"
b1111 H"
b10 s"
b10 N"
b110100 v
1k
#595
0k
#600
1n
b1000000 m
b1000000 A"
0q
b0 r"
1?
b0 L"
0\
1b
05
b0 8
b0 ~
b0 h"
b0 6
b0 }
b0 i"
b10001 |
b10000 {
b1 w
b1010 z
0+
0-
b0 4"
0Z
b0 ]
b0 ."
b0 I"
b0 [
b0 -"
b0 H"
1d
07
b0 .
b0 l"
b0 k"
1=
b11 N"
b11 s"
1k
#605
0k
#610
0b
0?
b10 8"
b1 6"
0=
b100 L"
0d
b0 :"
b0 s"
1M"
0O"
b0 N"
1k
#615
0k
#620
b10 4"
b0 8"
15"
b0 6"
1h
b1000000 j
b1000000 3"
b1000000 K"
b100 N"
b1 7"
b10 9"
1k
#625
0k
#630
b100 `"
b1000000 V
b1000000 ,"
b1000000 R"
1T
05"
b0 7"
b0 9"
b10 :"
1k
#635
0k
#640
b101 L"
1i
1!
b101 `"
1U
b1000000 4
b1000000 _"
b100 a"
1k
#645
0k
#650
1q
b101010110110100111010001010101 p
b101010110110100111010001010101 C"
b101001100 o
b101001100 B"
0n
b0 `"
1L
b0 L"
b10101101000110011010010101011010 Y
b10101101000110011010010101011010 G"
0i
0!
1^
b10101101000110011010010101011010 a
b10101101000110011010010101011010 0"
b10101101000110011010010101011010 ?"
0T
b0 V
b0 ,"
b0 R"
b1110 y
b1011 z
b0 4"
0U
b0 4
b0 _"
1J
b10101101000110011010010101011010 M
b10101101000110011010010101011010 )"
b10101101000110011010010101011010 ]"
0h
b0 j
b0 3"
b0 K"
1`
b101 a"
b101 N"
b10101101000110011010010101011010 "
b10101101000110011010010101011010 P"
b1000000 s
1k
#655
0k
#660
0L
0^
b0 a
b0 0"
b0 ?"
b1 L"
0`
b0 Y
b0 G"
0J
b0 M
b0 )"
b0 ]"
b10 8"
b1 6"
0M"
1O"
b0 N"
b0 a"
b0 :"
1k
#665
0k
#670
b1 4"
b1 8"
1;"
b0 6"
1e
b101001100 g
b101001100 2"
b101001100 J"
b1 7"
b10 9"
b1 N"
1k
#675
0k
#680
b1 r"
b1001100 B
b1001100 $"
b1001100 f"
1@
0;"
b0 7"
b1 9"
b1 :"
1k
#685
0k
#690
b10 L"
1f
1*
b10 r"
1A
b1001100 /
b1001100 m"
b1 s"
1k
#695
0k
#700
1-
1+
b11 r"
b101010110110100111010001010101 .
b101010110110100111010001010101 l"
b1111 k"
15
b101010110110100111010001010101 8
b101010110110100111010001010101 ~
b101010110110100111010001010101 h"
b1111 6
b1111 }
b1111 i"
b11 L"
0f
1\
0@
b0 B
b0 $"
b0 f"
0*
0e
b0 g
b0 2"
b0 J"
1Z
b101010110110100111010001010101 ]
b101010110110100111010001010101 ."
b101010110110100111010001010101 I"
b1111 [
b1111 -"
b1111 H"
0A
b0 /
b0 m"
17
b10 N"
b10 s"
b1001100 v
1k
#705
0k
