logical/sim/wrapper/wrapper_axi4_lite_interconnect_m1s2.vcd
$date
	Mon Jun 30 13:40:44 2025
$end
$version
	Icarus Verilog
$end
$timescale
	1ns
$end
$scope module tb_wrapper_axi4_lite_interconnect_m1s2 $end
$var wire 1 ! s1_WVALID $end
$var wire 4 " s1_WSTRB [3:0] $end
$var wire 1 # s1_WREADY $end
$var wire 32 $ s1_WDATA [31:0] $end
$var wire 1 % s1_RVALID $end
$var wire 2 & s1_RRESP [1:0] $end
$var wire 1 ' s1_RREADY $end
$var wire 32 ( s1_RDATA [31:0] $end
$var wire 1 ) s1_BVALID $end
$var wire 2 * s1_BRESP [1:0] $end
$var wire 1 + s1_BREADY $end
$var wire 1 , s1_AWVALID $end
$var wire 1 - s1_AWREADY $end
$var wire 32 . s1_AWADDR [31:0] $end
$var wire 1 / s1_ARVALID $end
$var wire 1 0 s1_ARREADY $end
$var wire 32 1 s1_ARADDR [31:0] $end
$var wire 1 2 s0_WVALID $end
$var wire 4 3 s0_WSTRB [3:0] $end
$var wire 1 4 s0_WREADY $end
$var wire 32 5 s0_WDATA [31:0] $end
$var wire 1 6 s0_RVALID $end
$var wire 2 7 s0_RRESP [1:0] $end
$var wire 1 8 s0_RREADY $end
$var wire 32 9 s0_RDATA [31:0] $end
$var wire 1 : s0_BVALID $end
$var wire 2 ; s0_BRESP [1:0] $end
$var wire 1 < s0_BREADY $end
$var wire 1 = s0_AWVALID $end
$var wire 1 > s0_AWREADY $end
$var wire 32 ? s0_AWADDR [31:0] $end
$var wire 1 @ s0_ARVALID $end
$var wire 1 A s0_ARREADY $end
$var wire 32 B s0_ARADDR [31:0] $end
$var wire 1 C m0_WVALID $end
$var wire 4 D m0_WSTRB [3:0] $end
$var wire 1 E m0_WREADY $end
$var wire 32 F m0_WDATA [31:0] $end
$var wire 1 G m0_RVALID $end
$var wire 2 H m0_RRESP [1:0] $end
$var wire 1 I m0_RREADY $end
$var wire 32 J m0_RDATA [31:0] $end
$var wire 1 K m0_BVALID $end
$var wire 2 L m0_BRESP [1:0] $end
$var wire 1 M m0_BREADY $end
$var wire 1 N m0_AWVALID $end
$var wire 1 O m0_AWREADY $end
$var wire 32 P m0_AWADDR [31:0] $end
$var wire 1 Q m0_ARVALID $end
$var wire 1 R m0_ARREADY $end
$var wire 32 S m0_ARADDR [31:0] $end
$var reg 1 T iCLK $end
$var reg 1 U iRST $end
$scope module interconnect $end
$var wire 1 T iCLK $end
$var wire 1 U iRST $end
$var wire 1 ! s1_WVALID $end
$var wire 4 V s1_WSTRB [3:0] $end
$var wire 1 # s1_WREADY $end
$var wire 32 W s1_WDATA [31:0] $end
$var wire 1 % s1_RVALID $end
$var wire 2 X s1_RRESP [1:0] $end
$var wire 1 ' s1_RREADY $end
$var wire 32 Y s1_RDATA [31:0] $end
$var wire 1 ) s1_BVALID $end
$var wire 2 Z s1_BRESP [1:0] $end
$var wire 1 + s1_BREADY $end
$var wire 1 , s1_AWVALID $end
$var wire 1 - s1_AWREADY $end
$var wire 32 [ s1_AWADDR [31:0] $end
$var wire 1 / s1_ARVALID $end
$var wire 1 0 s1_ARREADY $end
$var wire 32 \ s1_ARADDR [31:0] $end
$var wire 1 2 s0_WVALID $end
$var wire 4 ] s0_WSTRB [3:0] $end
$var wire 1 4 s0_WREADY $end
$var wire 32 ^ s0_WDATA [31:0] $end
$var wire 1 6 s0_RVALID $end
$var wire 2 _ s0_RRESP [1:0] $end
$var wire 1 8 s0_RREADY $end
$var wire 32 ` s0_RDATA [31:0] $end
$var wire 1 : s0_BVALID $end
$var wire 2 a s0_BRESP [1:0] $end
$var wire 1 < s0_BREADY $end
$var wire 1 = s0_AWVALID $end
$var wire 1 > s0_AWREADY $end
$var wire 32 b s0_AWADDR [31:0] $end
$var wire 1 @ s0_ARVALID $end
$var wire 1 A s0_ARREADY $end
$var wire 32 c s0_ARADDR [31:0] $end
$var wire 1 C m0_WVALID $end
$var wire 4 d m0_WSTRB [3:0] $end
$var wire 1 E m0_WREADY $end
$var wire 32 e m0_WDATA [31:0] $end
$var wire 1 G m0_RVALID $end
$var wire 2 f m0_RRESP [1:0] $end
$var wire 1 I m0_RREADY $end
$var wire 32 g m0_RDATA [31:0] $end
$var wire 1 K m0_BVALID $end
$var wire 2 h m0_BRESP [1:0] $end
$var wire 1 M m0_BREADY $end
$var wire 1 N m0_AWVALID $end
$var wire 1 O m0_AWREADY $end
$var wire 32 i m0_AWADDR [31:0] $end
$var wire 1 Q m0_ARVALID $end
$var wire 1 R m0_ARREADY $end
$var wire 32 j m0_ARADDR [31:0] $end
$var reg 3 k next_state [2:0] $end
$var reg 1 l read_start $end
$var reg 2 m sel_m [1:0] $end
$var reg 2 n sel_m_reg [1:0] $end
$var reg 2 o sel_s [1:0] $end
$var reg 2 p sel_s_reg [1:0] $end
$var reg 3 q state [2:0] $end
$var reg 1 r write_start $end
$upscope $end
$scope module master0 $end
$var wire 1 T iCLK $end
$var wire 1 U iRST $end
$var wire 3 s m_ARPROT [2:0] $end
$var wire 1 R m_ARREADY $end
$var wire 3 t m_AWPROT [2:0] $end
$var wire 1 O m_AWREADY $end
$var wire 2 u m_BRESP [1:0] $end
$var wire 1 K m_BVALID $end
$var wire 32 v m_RDATA [31:0] $end
$var wire 2 w m_RRESP [1:0] $end
$var wire 1 G m_RVALID $end
$var wire 1 E m_WREADY $end
$var wire 1 x read_done $end
$var wire 1 y write_done $end
$var wire 4 z write_strb [3:0] $end
$var wire 2 { write_resp [1:0] $end
$var wire 1 | write_req $end
$var wire 32 } write_data [31:0] $end
$var wire 32 ~ write_addr [31:0] $end
$var wire 2 !" read_resp [1:0] $end
$var wire 1 "" read_req $end
$var wire 32 #" read_data [31:0] $end
$var wire 32 $" read_addr [31:0] $end
$var wire 1 C m_WVALID $end
$var wire 4 %" m_WSTRB [3:0] $end
$var wire 32 &" m_WDATA [31:0] $end
$var wire 1 I m_RREADY $end
$var wire 1 M m_BREADY $end
$var wire 1 N m_AWVALID $end
$var wire 32 '" m_AWADDR [31:0] $end
$var wire 1 Q m_ARVALID $end
$var wire 32 (" m_ARADDR [31:0] $end
$var reg 32 )" read_data_reg [31:0] $end
$var reg 1 *" read_done_reg $end
$var reg 2 +" read_resp_reg [1:0] $end
$var reg 1 ," write_done_reg $end
$var reg 2 -" write_resp_reg [1:0] $end
$scope module axi_master $end
$var wire 1 T iCLK $end
$var wire 1 U iRST $end
$var wire 3 ." m_ARPROT [2:0] $end
$var wire 1 R m_ARREADY $end
$var wire 3 /" m_AWPROT [2:0] $end
$var wire 1 O m_AWREADY $end
$var wire 2 0" m_BRESP [1:0] $end
$var wire 1 K m_BVALID $end
$var wire 32 1" m_RDATA [31:0] $end
$var wire 2 2" m_RRESP [1:0] $end
$var wire 1 G m_RVALID $end
$var wire 1 E m_WREADY $end
$var wire 4 3" write_strb [3:0] $end
$var wire 2 4" write_resp [1:0] $end
$var wire 1 | write_req $end
$var wire 32 5" write_data [31:0] $end
$var wire 32 6" write_addr [31:0] $end
$var wire 2 7" read_resp [1:0] $end
$var wire 1 "" read_req $end
$var wire 32 8" read_data [31:0] $end
$var wire 32 9" read_addr [31:0] $end
$var wire 1 C m_WVALID $end
$var wire 4 :" m_WSTRB [3:0] $end
$var wire 32 ;" m_WDATA [31:0] $end
$var wire 1 I m_RREADY $end
$var wire 1 M m_BREADY $end
$var wire 1 N m_AWVALID $end
$var wire 32 <" m_AWADDR [31:0] $end
$var wire 1 Q m_ARVALID $end
$var wire 32 =" m_ARADDR [31:0] $end
$var reg 3 >" next_state [2:0] $end
$var reg 1 ?" read_start $end
$var reg 3 @" state [2:0] $end
$var reg 1 A" write_start $end
$upscope $end
$scope module master $end
$var wire 1 T iCLK $end
$var wire 1 B" iDONE $end
$var wire 1 U iRST $end
$var wire 32 C" r_DATA [31:0] $end
$var wire 1 "" r_REQ $end
$var wire 1 | w_REQ $end
$var reg 1 D" init $end
$var reg 32 E" r_ADDR [31:0] $end
$var reg 32 F" w_ADDR [31:0] $end
$var reg 32 G" w_DATA [31:0] $end
$var integer 32 H" byte_offset [31:0] $end
$var integer 32 I" i [31:0] $end
$var integer 32 J" j [31:0] $end
$var integer 32 K" offset_base [31:0] $end
$upscope $end
$upscope $end
$scope module slave0 $end
$var wire 1 T iCLK $end
$var wire 1 U iRST $end
$var wire 1 L" read_done $end
$var wire 1 M" read_req $end
$var wire 2 N" read_resp [1:0] $end
$var wire 32 O" s_ARADDR [31:0] $end
$var wire 3 P" s_ARPROT [2:0] $end
$var wire 1 @ s_ARVALID $end
$var wire 32 Q" s_AWADDR [31:0] $end
$var wire 3 R" s_AWPROT [2:0] $end
$var wire 1 = s_AWVALID $end
$var wire 1 < s_BREADY $end
$var wire 1 8 s_RREADY $end
$var wire 32 S" s_WDATA [31:0] $end
$var wire 4 T" s_WSTRB [3:0] $end
$var wire 1 2 s_WVALID $end
$var wire 1 U" write_done $end
$var wire 1 V" write_req $end
$var wire 2 W" write_resp [1:0] $end
$var wire 4 X" write_strb [3:0] $end
$var wire 32 Y" write_data [31:0] $end
$var wire 32 Z" write_addr [31:0] $end
$var wire 1 4 s_WREADY $end
$var wire 1 6 s_RVALID $end
$var wire 2 [" s_RRESP [1:0] $end
$var wire 32 \" s_RDATA [31:0] $end
$var wire 1 : s_BVALID $end
$var wire 2 ]" s_BRESP [1:0] $end
$var wire 1 > s_AWREADY $end
$var wire 1 A s_ARREADY $end
$var wire 32 ^" read_data [31:0] $end
$var wire 32 _" read_addr [31:0] $end
$var reg 32 `" read_addr_reg [31:0] $end
$var reg 1 a" read_done_reg $end
$var reg 1 b" read_req_reg $end
$var reg 32 c" write_addr_reg [31:0] $end
$var reg 32 d" write_data_reg [31:0] $end
$var reg 1 e" write_done_reg $end
$var reg 1 f" write_req_reg $end
$var reg 4 g" write_strb_reg [3:0] $end
$scope module axi_slave $end
$var wire 1 T iCLK $end
$var wire 1 U iRST $end
$var wire 2 h" read_resp [1:0] $end
$var wire 32 i" s_ARADDR [31:0] $end
$var wire 3 j" s_ARPROT [2:0] $end
$var wire 1 @ s_ARVALID $end
$var wire 32 k" s_AWADDR [31:0] $end
$var wire 3 l" s_AWPROT [2:0] $end
$var wire 1 = s_AWVALID $end
$var wire 1 < s_BREADY $end
$var wire 1 8 s_RREADY $end
$var wire 32 m" s_WDATA [31:0] $end
$var wire 4 n" s_WSTRB [3:0] $end
$var wire 1 2 s_WVALID $end
$var wire 2 o" write_resp [1:0] $end
$var wire 4 p" write_strb [3:0] $end
$var wire 32 q" write_data [31:0] $end
$var wire 32 r" write_addr [31:0] $end
$var wire 1 4 s_WREADY $end
$var wire 1 6 s_RVALID $end
$var wire 2 s" s_RRESP [1:0] $end
$var wire 32 t" s_RDATA [31:0] $end
$var wire 1 : s_BVALID $end
$var wire 2 u" s_BRESP [1:0] $end
$var wire 1 > s_AWREADY $end
$var wire 1 A s_ARREADY $end
$var wire 32 v" read_data [31:0] $end
$var wire 32 w" read_addr [31:0] $end
$var reg 3 x" next_state [2:0] $end
$var reg 3 y" state [2:0] $end
$upscope $end
$scope module slave $end
$var wire 1 T iCLK $end
$var wire 1 z" iDONE $end
$var wire 1 U iRST $end
$var wire 32 {" r_ADDR [31:0] $end
$var wire 1 M" r_REQ $end
$var wire 32 |" w_ADDR [31:0] $end
$var wire 32 }" w_DATA [31:0] $end
$var wire 1 f" w_REQ $end
$var reg 32 ~" r_DATA [31:0] $end
$var integer 32 !# i [31:0] $end
$upscope $end
$upscope $end
$scope module slave1 $end
$var wire 1 T iCLK $end
$var wire 1 U iRST $end
$var wire 1 "# read_done $end
$var wire 1 ## read_req $end
$var wire 2 $# read_resp [1:0] $end
$var wire 32 %# s_ARADDR [31:0] $end
$var wire 3 &# s_ARPROT [2:0] $end
$var wire 1 / s_ARVALID $end
$var wire 32 '# s_AWADDR [31:0] $end
$var wire 3 (# s_AWPROT [2:0] $end
$var wire 1 , s_AWVALID $end
$var wire 1 + s_BREADY $end
$var wire 1 ' s_RREADY $end
$var wire 32 )# s_WDATA [31:0] $end
$var wire 4 *# s_WSTRB [3:0] $end
$var wire 1 ! s_WVALID $end
$var wire 1 +# write_done $end
$var wire 1 ,# write_req $end
$var wire 2 -# write_resp [1:0] $end
$var wire 4 .# write_strb [3:0] $end
$var wire 32 /# write_data [31:0] $end
$var wire 32 0# write_addr [31:0] $end
$var wire 1 # s_WREADY $end
$var wire 1 % s_RVALID $end
$var wire 2 1# s_RRESP [1:0] $end
$var wire 32 2# s_RDATA [31:0] $end
$var wire 1 ) s_BVALID $end
$var wire 2 3# s_BRESP [1:0] $end
$var wire 1 - s_AWREADY $end
$var wire 1 0 s_ARREADY $end
$var wire 32 4# read_data [31:0] $end
$var wire 32 5# read_addr [31:0] $end
$var reg 32 6# read_addr_reg [31:0] $end
$var reg 1 7# read_done_reg $end
$var reg 1 8# read_req_reg $end
$var reg 32 9# write_addr_reg [31:0] $end
$var reg 32 :# write_data_reg [31:0] $end
$var reg 1 ;# write_done_reg $end
$var reg 1 <# write_req_reg $end
$var reg 4 =# write_strb_reg [3:0] $end
$scope module axi_slave $end
$var wire 1 T iCLK $end
$var wire 1 U iRST $end
$var wire 2 ># read_resp [1:0] $end
$var wire 32 ?# s_ARADDR [31:0] $end
$var wire 3 @# s_ARPROT [2:0] $end
$var wire 1 / s_ARVALID $end
$var wire 32 A# s_AWADDR [31:0] $end
$var wire 3 B# s_AWPROT [2:0] $end
$var wire 1 , s_AWVALID $end
$var wire 1 + s_BREADY $end
$var wire 1 ' s_RREADY $end
$var wire 32 C# s_WDATA [31:0] $end
$var wire 4 D# s_WSTRB [3:0] $end
$var wire 1 ! s_WVALID $end
$var wire 2 E# write_resp [1:0] $end
$var wire 4 F# write_strb [3:0] $end
$var wire 32 G# write_data [31:0] $end
$var wire 32 H# write_addr [31:0] $end
$var wire 1 # s_WREADY $end
$var wire 1 % s_RVALID $end
$var wire 2 I# s_RRESP [1:0] $end
$var wire 32 J# s_RDATA [31:0] $end
$var wire 1 ) s_BVALID $end
$var wire 2 K# s_BRESP [1:0] $end
$var wire 1 - s_AWREADY $end
$var wire 1 0 s_ARREADY $end
$var wire 32 L# read_data [31:0] $end
$var wire 32 M# read_addr [31:0] $end
$var reg 3 N# next_state [2:0] $end
$var reg 3 O# state [2:0] $end
$upscope $end
$scope module slave $end
$var wire 1 T iCLK $end
$var wire 1 P# iDONE $end
$var wire 1 U iRST $end
$var wire 32 Q# r_ADDR [31:0] $end
$var wire 1 ## r_REQ $end
$var wire 32 R# w_ADDR [31:0] $end
$var wire 32 S# w_DATA [31:0] $end
$var wire 1 <# w_REQ $end
$var reg 32 T# r_DATA [31:0] $end
$var integer 32 U# i [31:0] $end
$upscope $end
$upscope $end
$upscope $end
$enddefinitions $end
#0
$dumpvars
b100000000 U#
b0 T#
b0 S#
b0 R#
b0 Q#
0P#
b0 O#
b0 N#
b0 M#
b0 L#
b0 K#
b0 J#
b0 I#
b0 H#
b0 G#
b0 F#
b0 E#
b0 D#
b0 C#
b0 B#
b0 A#
b0 @#
b0 ?#
b0 >#
b0 =#
0<#
0;#
b0 :#
b0 9#
08#
07#
b0 6#
b0 5#
b0 4#
b0 3#
b0 2#
b0 1#
b0 0#
b0 /#
b0 .#
b0 -#
0,#
0+#
b0 *#
b0 )#
b0 (#
b0 '#
b0 &#
b0 %#
b0 $#
0##
0"#
b100000000 !#
b0 ~"
b0 }"
b0 |"
b0 {"
0z"
b0 y"
b0 x"
b0 w"
b0 v"
b0 u"
b0 t"
b0 s"
b0 r"
b0 q"
b0 p"
b0 o"
b0 n"
b0 m"
b0 l"
b0 k"
b0 j"
b0 i"
b0 h"
b0 g"
0f"
0e"
b0 d"
b0 c"
0b"
0a"
b0 `"
b0 _"
b0 ^"
b0 ]"
b0 \"
b0 ["
b0 Z"
b0 Y"
b0 X"
b0 W"
0V"
0U"
b0 T"
b0 S"
b0 R"
b0 Q"
b0 P"
b0 O"
b0 N"
0M"
0L"
b0 K"
b1 J"
b1100100 I"
b10101010 H"
b0 G"
b0 F"
b0 E"
1D"
b0 C"
0B"
0A"
b0 @"
0?"
b100 >"
b0 ="
b0 <"
b0 ;"
b0 :"
b0 9"
b0 8"
b0 7"
b0 6"
b0 5"
b0 4"
b1111 3"
b0 2"
b0 1"
b0 0"
b0 /"
b0 ."
b0 -"
0,"
b0 +"
0*"
b0 )"
b0 ("
b0 '"
b0 &"
b0 %"
b0 $"
b0 #"
1""
b0 !"
b0 ~
b0 }
0|
b0 {
b1111 z
0y
0x
b0 w
b0 v
b0 u
b0 t
b0 s
0r
b0 q
b10 p
b10 o
b1 n
b1 m
0l
b0 k
b0 j
b0 i
b0 h
b0 g
b0 f
b0 e
b0 d
b0 c
b0 b
b0 a
b0 `
b0 _
b0 ^
b0 ]
b0 \
b0 [
b0 Z
b0 Y
b0 X
b0 W
b0 V
0U
1T
b0 S
0R
0Q
b0 P
0O
0N
0M
b0 L
0K
b0 J
0I
b0 H
0G
b0 F
0E
b0 D
0C
b0 B
0A
0@
b0 ?
0>
0=
0<
b0 ;
0:
b0 9
08
b0 7
06
b0 5
04
b0 3
02
b0 1
00
0/
b0 .
0-
0,
0+
b0 *
0)
b0 (
0'
b0 &
0%
b0 $
0#
b0 "
0!
$end
#5
0T
#10
b10 k
b0 o
1l
b0 m
1Q
1?"
b100 @"
1T
1U
#15
0T
#20
b100 x"
1@
0l
b0 n
b0 p
b10 q
1T
#25
0T
#30
b101 >"
1R
b101 x"
1M"
1A
b100 y"
1T
#35
0T
#40
1z"
1L"
b0 x"
18
1B"
b0 >"
b10010101100010110010101100101011 #"
b10010101100010110010101100101011 8"
0@
1x
0R
1G
b0 k
b10010101100010110010101100101011 J
b10010101100010110010101100101011 g
b10010101100010110010101100101011 v
b10010101100010110010101100101011 1"
0Q
1I
0M"
0A
16
b10010101100010110010101100101011 9
b10010101100010110010101100101011 `
b10010101100010110010101100101011 \"
b10010101100010110010101100101011 t"
b101 @"
b101 y"
b10010101100010110010101100101011 ^"
b10010101100010110010101100101011 v"
b10010101100010110010101100101011 ~"
1b"
1T
#45
0T
#50
0z"
0B"
0L"
0G
b0 J
b0 g
b0 v
b0 1"
0x
08
b10 o
b1 m
06
b0 9
b0 `
b0 \"
b0 t"
b100 >"
0I
b0 #"
b0 8"
b0 q
1a"
0b"
b0 y"
b10010101100010110010101100101011 )"
b10010101100010110010101100101011 C"
1*"
b10000110 $"
b10000110 9"
b10000110 E"
b10 J"
b0 @"
1T
#55
0T
#60
b10 k
b0 o
1l
b0 m
1Q
b10000110 S
b10000110 j
b10000110 ("
b10000110 ="
b100 @"
1|
0""
0D"
0*"
0a"
b1 n
b10 p
1T
#65
0T
#70
b100 x"
b10000110 B
b10000110 c
b10000110 O"
b10000110 i"
1@
0l
b0 n
b0 p
b10 q
0?"
1A"
1T
#75
0T
#80
b101 >"
1R
b101 x"
1M"
1A
b10000110 _"
b10000110 w"
b10000110 {"
b100 y"
1T
#85
0T
#90
1z"
1L"
b0 x"
1B"
18
1x
b0 >"
b10011101001111111001110100111010 #"
b10011101001111111001110100111010 8"
0R
1G
b10011101001111111001110100111010 J
b10011101001111111001110100111010 g
b10011101001111111001110100111010 v
b10011101001111111001110100111010 1"
0@
b0 B
b0 c
b0 O"
b0 i"
b0 k
0M"
0A
b0 _"
b0 w"
b0 {"
16
b10011101001111111001110100111010 9
b10011101001111111001110100111010 `
b10011101001111111001110100111010 \"
b10011101001111111001110100111010 t"
0Q
b0 S
b0 j
b0 ("
b0 ="
1I
b10000110 `"
1b"
b10011101001111111001110100111010 ^"
b10011101001111111001110100111010 v"
b10011101001111111001110100111010 ~"
b101 y"
b101 @"
1T
#95
0T
#100
0B"
0z"
0x
08
0L"
0G
b0 J
b0 g
b0 v
b0 1"
b1 >"
0I
b0 #"
b0 8"
06
b0 9
b0 `
b0 \"
b0 t"
b10 o
b1 m
b0 @"
b0 $"
b0 9"
b0 E"
b10000000111100111110001100000001 }
b10000000111100111110001100000001 5"
b10000000111100111110001100000001 G"
b1001 ~
b1001 6"
b1001 F"
b11 J"
b10011101001111111001110100111010 )"
b10011101001111111001110100111010 C"
1*"
b0 y"
1a"
0b"
b0 q
1T
#105
0T
#110
b1 k
b0 o
1r
b0 m
1N
b1001 P
b1001 i
b1001 '"
b1001 <"
b1 n
b10 p
0a"
0*"
b1 @"
1T
#115
0T
#120
b1 x"
b1001 ?
b1001 b
b1001 Q"
b1001 k"
1=
0r
b0 n
b0 p
b1 q
1T
#125
0T
#130
b10 >"
1O
b10 x"
1V"
1>
b1001 Z"
b1001 r"
b1 y"
1T
#135
0T
#140
b11 x"
b10000000111100111110001100000001 Y"
b10000000111100111110001100000001 q"
b10000000111100111110001100000001 }"
b1111 X"
b1111 p"
12
b10000000111100111110001100000001 5
b10000000111100111110001100000001 ^
b10000000111100111110001100000001 S"
b10000000111100111110001100000001 m"
b1111 3
b1111 ]
b1111 T"
b1111 n"
b11 >"
0=
b0 ?
b0 b
b0 Q"
b0 k"
0O
1E
0N
b0 P
b0 i
b0 '"
b0 <"
1C
b10000000111100111110001100000001 F
b10000000111100111110001100000001 e
b10000000111100111110001100000001 &"
b10000000111100111110001100000001 ;"
b1111 D
b1111 d
b1111 %"
b1111 :"
0V"
0>
b0 Z"
b0 r"
14
b10 @"
b10 y"
b1001 c"
b1001 |"
1f"
1T
#145
0T
#150
1z"
1U"
b0 x"
1B"
1<
1y
b0 >"
0E
1K
02
b0 5
b0 ^
b0 S"
b0 m"
b0 3
b0 ]
b0 T"
b0 n"
b0 k
04
b0 Y"
b0 q"
b0 }"
b0 X"
b0 p"
1:
0C
b0 F
b0 e
b0 &"
b0 ;"
b0 D
b0 d
b0 %"
b0 :"
1M
b10000000111100111110001100000001 d"
b1111 g"
0f"
b11 y"
b11 @"
1T
#155
0T
#160
0B"
0z"
0y
0<
0U"
0K
b1 >"
0M
0:
b10 o
b1 m
b0 @"
b10011110100011011100110100111101 }
b10011110100011011100110100111101 5"
b10011110100011011100110100111101 G"
b110111011 ~
b110111011 6"
b110111011 F"
b100 J"
1,"
b0 y"
1e"
b0 q
1T
#165
0T
#170
b1 k
b1 o
1r
b0 m
1N
b110111011 P
b110111011 i
b110111011 '"
b110111011 <"
b1 n
b10 p
0e"
0,"
b1 @"
1T
#175
0T
#180
b1 N#
b10111011 .
b10111011 [
b10111011 '#
b10111011 A#
1,
0r
b0 n
b1 p
b1 q
1T
#185
0T
#190
b10 >"
1O
b10 N#
1,#
1-
b10111011 0#
b10111011 H#
b1 O#
1T
#195
0T
#200
b11 N#
b10011110100011011100110100111101 /#
b10011110100011011100110100111101 G#
b10011110100011011100110100111101 S#
b1111 .#
b1111 F#
1!
b10011110100011011100110100111101 $
b10011110100011011100110100111101 W
b10011110100011011100110100111101 )#
b10011110100011011100110100111101 C#
b1111 "
b1111 V
b1111 *#
b1111 D#
b11 >"
0O
1E
0,
b0 .
b0 [
b0 '#
b0 A#
0N
b0 P
b0 i
b0 '"
b0 <"
1C
b10011110100011011100110100111101 F
b10011110100011011100110100111101 e
b10011110100011011100110100111101 &"
b10011110100011011100110100111101 ;"
b1111 D
b1111 d
b1111 %"
b1111 :"
0,#
0-
b0 0#
b0 H#
1#
b10 @"
b10 O#
b10111011 9#
b10111011 R#
1<#
1T
#205
0T
#210
1P#
1B"
1+#
b0 N#
1y
b0 >"
1+
0E
1K
0!
b0 $
b0 W
b0 )#
b0 C#
b0 "
b0 V
b0 *#
b0 D#
b0 k
0#
b0 /#
b0 G#
b0 S#
b0 .#
b0 F#
1)
0C
b0 F
b0 e
b0 &"
b0 ;"
b0 D
b0 d
b0 %"
b0 :"
1M
b10011110100011011100110100111101 :#
b1111 =#
0<#
b11 O#
b11 @"
1T
#215
0T
#220
0B"
0P#
0K
0y
0+
0+#
b1 >"
0M
0)
b10 o
b1 m
b0 @"
b11111100111111011110100111111001 }
b11111100111111011110100111111001 5"
b11111100111111011110100111111001 G"
b111000110 ~
b111000110 6"
b111000110 F"
b101 J"
1,"
b0 O#
1;#
b0 q
1T
#225
0T
#230
b1 k
b1 o
1r
b0 m
1N
b111000110 P
b111000110 i
b111000110 '"
b111000110 <"
b1 n
b10 p
0;#
0,"
b1 @"
1T
#235
0T
#240
b1 N#
b11000110 .
b11000110 [
b11000110 '#
b11000110 A#
1,
0r
b0 n
b1 p
b1 q
1T
#245
0T
#250
b10 >"
1O
b10 N#
1,#
1-
b11000110 0#
b11000110 H#
b1 O#
1T
#255
0T
#260
b11 N#
b11111100111111011110100111111001 /#
b11111100111111011110100111111001 G#
b11111100111111011110100111111001 S#
b1111 .#
b1111 F#
1!
b11111100111111011110100111111001 $
b11111100111111011110100111111001 W
b11111100111111011110100111111001 )#
b11111100111111011110100111111001 C#
b1111 "
b1111 V
b1111 *#
b1111 D#
b11 >"
0O
1E
0,
b0 .
b0 [
b0 '#
b0 A#
0N
b0 P
b0 i
b0 '"
b0 <"
1C
b11111100111111011110100111111001 F
b11111100111111011110100111111001 e
b11111100111111011110100111111001 &"
b11111100111111011110100111111001 ;"
b1111 D
b1111 d
b1111 %"
b1111 :"
0,#
0-
b0 0#
b0 H#
1#
b10 @"
b10 O#
b11000110 9#
b11000110 R#
1<#
1T
#265
0T
#270
1P#
1B"
1+#
b0 N#
1y
b0 >"
1+
0E
1K
0!
b0 $
b0 W
b0 )#
b0 C#
b0 "
b0 V
b0 *#
b0 D#
b0 k
0#
b0 /#
b0 G#
b0 S#
b0 .#
b0 F#
1)
0C
b0 F
b0 e
b0 &"
b0 ;"
b0 D
b0 d
b0 %"
b0 :"
1M
b11111100111111011110100111111001 :#
0<#
b11 O#
b11 @"
1T
#275
0T
#280
0B"
0P#
0K
0y
0+
0+#
b1 >"
0M
0)
b10 o
b1 m
b0 @"
b1010101000100111101001010101010 }
b1010101000100111101001010101010 5"
b1010101000100111101001010101010 G"
b1100010 ~
b1100010 6"
b1100010 F"
b110 J"
1,"
b0 O#
1;#
b0 q
1T
#285
0T
#290
b1 k
b0 o
1r
b0 m
1N
b1100010 P
b1100010 i
b1100010 '"
b1100010 <"
b1 n
b10 p
0;#
0,"
b1 @"
1T
#295
0T
#300
b1 x"
b1100010 ?
b1100010 b
b1100010 Q"
b1100010 k"
1=
0r
b0 n
b0 p
b1 q
1T
#305
0T
#310
b10 >"
1O
b10 x"
1V"
1>
b1100010 Z"
b1100010 r"
b1 y"
1T
